{
  "elements" : [ {
    "allowOverride" : false,
    "combinationType" : "FUNCTION",
    "displayOptions" : 0,
    "elementGroups" : [ ],
    "elementName" : "AbortOnSyntaxCheck",
    "elementTimeout" : 0,
    "hideOnNull" : false,
    "hideWarnings" : false,
    "protectedExpression" : false,
    "summarize" : false
  }, {
    "allowOverride" : false,
    "combinationType" : "FUNCTION",
    "displayOptions" : 0,
    "elementGroups" : [ ],
    "elementName" : "Competitor",
    "elementTimeout" : 0,
    "hideOnNull" : false,
    "hideWarnings" : false,
    "protectedExpression" : false,
    "summarize" : false
  }, {
    "allowOverride" : false,
    "combinationType" : "FUNCTION",
    "displayOptions" : 5,
    "elementGroups" : [ ],
    "elementLabel" : "Cost",
    "elementName" : "ProductCost",
    "elementTimeout" : 0,
    "formatType" : "MONEY_EUR",
    "hideOnNull" : false,
    "hideWarnings" : false,
    "protectedExpression" : false,
    "summarize" : false
  }, {
    "allowOverride" : false,
    "combinationType" : "FUNCTION",
    "displayOptions" : 5,
    "elementGroups" : [ ],
    "elementLabel" : "Positioning",
    "elementName" : "CompetitivePositioning",
    "elementTimeout" : 0,
    "formatType" : "PERCENT",
    "hideOnNull" : false,
    "hideWarnings" : false,
    "protectedExpression" : false,
    "summarize" : false
  }, {
    "allowOverride" : false,
    "combinationType" : "FUNCTION",
    "displayOptions" : 5,
    "elementGroups" : [ ],
    "elementLabel" : "Comp. Name",
    "elementName" : "CompetitorName",
    "elementTimeout" : 0,
    "hideOnNull" : false,
    "hideWarnings" : false,
    "protectedExpression" : false,
    "summarize" : false
  }, {
    "allowOverride" : false,
    "combinationType" : "FUNCTION",
    "displayOptions" : 5,
    "elementGroups" : [ ],
    "elementLabel" : "Comp. Prod. Label",
    "elementName" : "CompetitorProductLabel",
    "elementTimeout" : 0,
    "hideOnNull" : false,
    "hideWarnings" : false,
    "protectedExpression" : false,
    "summarize" : false
  }, {
    "allowOverride" : false,
    "combinationType" : "FUNCTION",
    "displayOptions" : 5,
    "elementGroups" : [ ],
    "elementLabel" : "Comp. Price",
    "elementName" : "CompetitorProductPrice",
    "elementTimeout" : 0,
    "formatType" : "MONEY_EUR",
    "hideOnNull" : false,
    "hideWarnings" : false,
    "protectedExpression" : false,
    "summarize" : false
  }, {
    "allowOverride" : false,
    "combinationType" : "FUNCTION",
    "displayOptions" : 5,
    "elementGroups" : [ ],
    "elementLabel" : "List Price",
    "elementName" : "ListPrice",
    "elementTimeout" : 0,
    "formatType" : "MONEY_EUR",
    "hideOnNull" : false,
    "hideWarnings" : false,
    "protectedExpression" : false,
    "summarize" : false
  }, {
    "allowOverride" : false,
    "combinationType" : "FUNCTION",
    "displayOptions" : 5,
    "elementLabel" : "Margin %",
    "elementName" : "MarginPct",
    "elementTimeout" : 0,
    "formatType" : "PERCENT",
    "hideOnNull" : false,
    "hideWarnings" : false,
    "protectedExpression" : false,
    "summarize" : false
  } ],
  "inputDescriptors" : [ ],
  "label" : "Competition Pricing Pricelist Training",
  "status" : "ACTIVE",
  "uniqueName" : "CompetitionPricingTraining",
  "validAfter" : "2022-01-01"
}