{
  "elements" : [ {
    "allowOverride" : false,
    "combinationType" : "FUNCTION",
    "displayOptions" : 2,
    "elementGroups" : [ ],
    "elementLabel" : "Delivery Type Input",
    "elementName" : "DeliveryType",
    "elementTimeout" : 0,
    "hideOnNull" : false,
    "hideWarnings" : false,
    "protectedExpression" : false,
    "summarize" : false
  }, {
    "allowOverride" : false,
    "combinationType" : "FUNCTION",
    "displayOptions" : 2,
    "elementGroups" : [ ],
    "elementLabel" : "Total Invoice Price",
    "elementName" : "TotalInvoicePrice",
    "elementTimeout" : 0,
    "hideOnNull" : false,
    "hideWarnings" : false,
    "protectedExpression" : false,
    "summarize" : false
  } ],
  "formulaNature" : "quoteHeader",
  "inputDescriptors" : [ ],
  "label" : "Quote Header Logic Training",
  "status" : "ACTIVE",
  "uniqueName" : "QuoteHeaderLogicTraining",
  "validAfter" : "2020-01-01"
}