{
  "calculationConfig" : {
    "feederFormulaName" : null,
    "feederInputParams" : [ ],
    "formulaName" : null,
    "inputParams" : [ ],
    "mappingParams" : [ ],
    "outputElements" : [ ],
    "simulationSet" : null,
    "skuField" : null,
    "targetDate" : null,
    "targetDateField" : null,
    "targetFields" : null
  },
  "continuous" : false,
  "distributed" : false,
  "incremental" : false,
  "isDefault" : true,
  "isPlasma" : false,
  "label" : "Product",
  "targetName" : "DMDS.Product",
  "type" : "DS_INTERNAL_COPY",
  "valid" : true,
  "withTargetSnapshot" : false
}